Biostat 212a Homework 6
…
Log trading volume (\(v_t\)): This is the fraction of all outstanding shares that are traded on that day, relative to a 100-day moving average of past turnover, on the log scale.

Dow Jones return (\(r_t\)): This is the difference between the log of the Dow Jones Industrial Index on consecutive trading days.

Log volatility (\(z_t\)): This is based on the absolute values of daily price movements.

# Read in NYSE data from url

url = "https://raw.githubusercontent.com/ucla-biostat-212a/2024winter/master/slides/data/NYSE.csv"
NYSE <- read_csv(url)

NYSE

# A tibble: 6,051 × 6
   date       day_of_week DJ_return log_volume log_volatility train
   <date>     <chr>           <dbl>      <dbl>          <dbl> <lgl>
 1 1962-12-03 mon         -0.00446     0.0326           -13.1 TRUE 
 2 1962-12-04 tues         0.00781     0.346            -11.7 TRUE 
 3 1962-12-05 wed          0.00384     0.525            -11.7 TRUE 
 4 1962-12-06 thur        -0.00346     0.210            -11.6 TRUE 
 5 1962-12-07 fri          0.000568    0.0442           -11.7 TRUE 
 6 1962-12-10 mon         -0.0108      0.133            -10.9 TRUE 
 7 1962-12-11 tues         0.000124   -0.0115           -11.0 TRUE 
 8 1962-12-12 wed          0.00336     0.00161          -11.0 TRUE 
 9 1962-12-13 thur        -0.00330    -0.106            -11.0 TRUE 
10 1962-12-14 fri          0.00447    -0.138            -11.0 TRUE 
# ℹ 6,041 more rows
…
